{"_id":{"$oid":"5df7a9850d219f2044c368e5"},"cedula":"27472644","digitos":"1403","saldo":0}
{"_id":{"$oid":"5df7a9a70d219f2044c368ee"},"cedula":"27606247","digitos":"1106","saldo":85505555}
{"_id":{"$oid":"5df7aa600d219f2044c36909"},"cedula":"27279427","digitos":"2112","saldo":25000}
{"_id":{"$oid":"5df7aa860d219f2044c36912"},"cedula":"25896547","digitos":"1111","saldo":5896319}
{"_id":{"$oid":"5df7aab10d219f2044c3691a"},"cedula":"6170891","digitos":"2906","saldo":580}
{"_id":{"$oid":"5df7aace0d219f2044c36921"},"cedula":"11833450","digitos":"0309","saldo":7500}
